ALU/alu.vcd
$date
	Sun Nov 22 17:20:49 2020
$end
$version
	Icarus Verilog
$end
$timescale
	1ps
$end
$scope module test_alu $end
$var wire 1 ! rst_n $end
$var wire 1 " overflow $end
$var wire 1 # ovalid $end
$var wire 32 $ odata [31:0] $end
$var wire 1 % ivalid $end
$var wire 4 & inst [3:0] $end
$var wire 32 ' idata_b [31:0] $end
$var wire 32 ( idata_a [31:0] $end
$var wire 1 ) clk $end
$scope module u_alu $end
$var wire 32 * o_data [31:0] $end
$var wire 1 " o_overflow $end
$var wire 1 # o_valid $end
$var wire 32 + signed_data_a [31:0] $end
$var wire 32 , signed_data_b [31:0] $end
$var wire 1 % i_valid $end
$var wire 1 ! i_rst_n $end
$var wire 4 - i_inst [3:0] $end
$var wire 32 . i_data_b [31:0] $end
$var wire 32 / i_data_a [31:0] $end
$var wire 1 ) i_clk $end
$var reg 1 0 negcheck $end
$var reg 32 1 o_data_r [31:0] $end
$var reg 32 2 o_data_w [31:0] $end
$var reg 1 3 o_overflow_r $end
$var reg 1 4 o_overflow_w $end
$var reg 1 5 o_valid_r $end
$var reg 1 6 o_valid_w $end
$var reg 1 7 poscheck $end
$var reg 32 8 temp [31:0] $end
$var reg 64 9 temp2 [63:0] $end
$var integer 32 : i [31:0] $end
$upscope $end
$scope module u_alu_test $end
$var wire 32 ; i_data [31:0] $end
$var wire 1 " i_overflow $end
$var wire 1 # i_valid $end
$var wire 1 ! i_rst_n $end
$var wire 1 ) i_clk $end
$var reg 6 < cs [5:0] $end
$var reg 6 = ns [5:0] $end
$var reg 32 > o_data_a [31:0] $end
$var reg 32 ? o_data_b [31:0] $end
$var reg 4 @ o_inst [3:0] $end
$var reg 1 % o_valid $end
$var integer 32 A total_error [31:0] $end
$scope begin test_unit[0] $end
$scope module inst $end
$var wire 32 B i_data [31:0] $end
$var wire 1 " i_overflow $end
$var wire 1 C i_start $end
$var wire 1 # i_valid $end
$var wire 32 D o_data_a [31:0] $end
$var wire 32 E o_data_b [31:0] $end
$var wire 1 F o_valid $end
$var wire 1 G test_finish $end
$var wire 1 H output_overflow $end
$var wire 32 I output_data [31:0] $end
$var wire 4 J o_inst [3:0] $end
$var wire 1 K o_done $end
$var wire 32 L input_B [31:0] $end
$var wire 32 M input_A [31:0] $end
$var wire 1 ! i_rst_n $end
$var wire 1 ) i_clk $end
$var reg 3 N cs_ [2:0] $end
$var reg 3 O idx_r [2:0] $end
$var reg 3 P idx_w [2:0] $end
$var reg 3 Q ns_ [2:0] $end
$var reg 32 R o_data_a_r [31:0] $end
$var reg 32 S o_data_a_w [31:0] $end
$var reg 32 T o_data_b_r [31:0] $end
$var reg 32 U o_data_b_w [31:0] $end
$var reg 1 V o_valid_r $end
$var reg 1 W o_valid_w $end
$var integer 32 X error [31:0] $end
$upscope $end
$upscope $end
$scope begin test_unit[1] $end
$scope module inst $end
$var wire 32 Y i_data [31:0] $end
$var wire 1 " i_overflow $end
$var wire 1 Z i_start $end
$var wire 1 # i_valid $end
$var wire 32 [ o_data_a [31:0] $end
$var wire 32 \ o_data_b [31:0] $end
$var wire 1 ] o_valid $end
$var wire 1 ^ test_finish $end
$var wire 1 _ output_overflow $end
$var wire 32 ` output_data [31:0] $end
$var wire 4 a o_inst [3:0] $end
$var wire 1 b o_done $end
$var wire 32 c input_B [31:0] $end
$var wire 32 d input_A [31:0] $end
$var wire 1 ! i_rst_n $end
$var wire 1 ) i_clk $end
$var reg 3 e cs_ [2:0] $end
$var reg 3 f idx_r [2:0] $end
$var reg 3 g idx_w [2:0] $end
$var reg 3 h ns_ [2:0] $end
$var reg 32 i o_data_a_r [31:0] $end
$var reg 32 j o_data_a_w [31:0] $end
$var reg 32 k o_data_b_r [31:0] $end
$var reg 32 l o_data_b_w [31:0] $end
$var reg 1 m o_valid_r $end
$var reg 1 n o_valid_w $end
$var integer 32 o error [31:0] $end
$upscope $end
$upscope $end
$scope begin test_unit[2] $end
$scope module inst $end
$var wire 32 p i_data [31:0] $end
$var wire 1 " i_overflow $end
$var wire 1 q i_start $end
$var wire 1 # i_valid $end
$var wire 32 r o_data_a [31:0] $end
$var wire 32 s o_data_b [31:0] $end
$var wire 1 t o_valid $end
$var wire 1 u test_finish $end
$var wire 1 v output_overflow $end
$var wire 32 w output_data [31:0] $end
$var wire 4 x o_inst [3:0] $end
$var wire 1 y o_done $end
$var wire 32 z input_B [31:0] $end
$var wire 32 { input_A [31:0] $end
$var wire 1 ! i_rst_n $end
$var wire 1 ) i_clk $end
$var reg 3 | cs_ [2:0] $end
$var reg 3 } idx_r [2:0] $end
$var reg 3 ~ idx_w [2:0] $end
$var reg 3 !" ns_ [2:0] $end
$var reg 32 "" o_data_a_r [31:0] $end
$var reg 32 #" o_data_a_w [31:0] $end
$var reg 32 $" o_data_b_r [31:0] $end
$var reg 32 %" o_data_b_w [31:0] $end
$var reg 1 &" o_valid_r $end
$var reg 1 '" o_valid_w $end
$var integer 32 (" error [31:0] $end
$upscope $end
$upscope $end
$scope begin test_unit[3] $end
$scope module inst $end
$var wire 32 )" i_data [31:0] $end
$var wire 1 " i_overflow $end
$var wire 1 *" i_start $end
$var wire 1 # i_valid $end
$var wire 32 +" o_data_a [31:0] $end
$var wire 32 ," o_data_b [31:0] $end
$var wire 1 -" o_valid $end
$var wire 1 ." test_finish $end
$var wire 1 /" output_overflow $end
$var wire 32 0" output_data [31:0] $end
$var wire 4 1" o_inst [3:0] $end
$var wire 1 2" o_done $end
$var wire 32 3" input_B [31:0] $end
$var wire 32 4" input_A [31:0] $end
$var wire 1 ! i_rst_n $end
$var wire 1 ) i_clk $end
$var reg 3 5" cs_ [2:0] $end
$var reg 3 6" idx_r [2:0] $end
$var reg 3 7" idx_w [2:0] $end
$var reg 3 8" ns_ [2:0] $end
$var reg 32 9" o_data_a_r [31:0] $end
$var reg 32 :" o_data_a_w [31:0] $end
$var reg 32 ;" o_data_b_r [31:0] $end
$var reg 32 <" o_data_b_w [31:0] $end
$var reg 1 =" o_valid_r $end
$var reg 1 >" o_valid_w $end
$var integer 32 ?" error [31:0] $end
$upscope $end
$upscope $end
$scope begin test_unit[4] $end
$scope module inst $end
$var wire 32 @" i_data [31:0] $end
$var wire 1 " i_overflow $end
$var wire 1 A" i_start $end
$var wire 1 # i_valid $end
$var wire 32 B" o_data_a [31:0] $end
$var wire 32 C" o_data_b [31:0] $end
$var wire 1 D" o_valid $end
$var wire 1 E" test_finish $end
$var wire 1 F" output_overflow $end
$var wire 32 G" output_data [31:0] $end
$var wire 4 H" o_inst [3:0] $end
$var wire 1 I" o_done $end
$var wire 32 J" input_B [31:0] $end
$var wire 32 K" input_A [31:0] $end
$var wire 1 ! i_rst_n $end
$var wire 1 ) i_clk $end
$var reg 3 L" cs_ [2:0] $end
$var reg 3 M" idx_r [2:0] $end
$var reg 3 N" idx_w [2:0] $end
$var reg 3 O" ns_ [2:0] $end
$var reg 32 P" o_data_a_r [31:0] $end
$var reg 32 Q" o_data_a_w [31:0] $end
$var reg 32 R" o_data_b_r [31:0] $end
$var reg 32 S" o_data_b_w [31:0] $end
$var reg 1 T" o_valid_r $end
$var reg 1 U" o_valid_w $end
$var integer 32 V" error [31:0] $end
$upscope $end
$upscope $end
$scope begin test_unit[5] $end
$scope module inst $end
$var wire 32 W" i_data [31:0] $end
$var wire 1 " i_overflow $end
$var wire 1 X" i_start $end
$var wire 1 # i_valid $end
$var wire 32 Y" o_data_a [31:0] $end
$var wire 32 Z" o_data_b [31:0] $end
$var wire 1 [" o_valid $end
$var wire 1 \" test_finish $end
$var wire 1 ]" output_overflow $end
$var wire 32 ^" output_data [31:0] $end
$var wire 4 _" o_inst [3:0] $end
$var wire 1 `" o_done $end
$var wire 32 a" input_B [31:0] $end
$var wire 32 b" input_A [31:0] $end
$var wire 1 ! i_rst_n $end
$var wire 1 ) i_clk $end
$var reg 3 c" cs_ [2:0] $end
$var reg 3 d" idx_r [2:0] $end
$var reg 3 e" idx_w [2:0] $end
$var reg 3 f" ns_ [2:0] $end
$var reg 32 g" o_data_a_r [31:0] $end
$var reg 32 h" o_data_a_w [31:0] $end
$var reg 32 i" o_data_b_r [31:0] $end
$var reg 32 j" o_data_b_w [31:0] $end
$var reg 1 k" o_valid_r $end
$var reg 1 l" o_valid_w $end
$var integer 32 m" error [31:0] $end
$upscope $end
$upscope $end
$scope begin test_unit[6] $end
$scope module inst $end
$var wire 32 n" i_data [31:0] $end
$var wire 1 " i_overflow $end
$var wire 1 o" i_start $end
$var wire 1 # i_valid $end
$var wire 32 p" o_data_a [31:0] $end
$var wire 32 q" o_data_b [31:0] $end
$var wire 1 r" o_valid $end
$var wire 1 s" test_finish $end
$var wire 1 t" output_overflow $end
$var wire 32 u" output_data [31:0] $end
$var wire 4 v" o_inst [3:0] $end
$var wire 1 w" o_done $end
$var wire 32 x" input_B [31:0] $end
$var wire 32 y" input_A [31:0] $end
$var wire 1 ! i_rst_n $end
$var wire 1 ) i_clk $end
$var reg 3 z" cs_ [2:0] $end
$var reg 3 {" idx_r [2:0] $end
$var reg 3 |" idx_w [2:0] $end
$var reg 3 }" ns_ [2:0] $end
$var reg 32 ~" o_data_a_r [31:0] $end
$var reg 32 !# o_data_a_w [31:0] $end
$var reg 32 "# o_data_b_r [31:0] $end
$var reg 32 ## o_data_b_w [31:0] $end
$var reg 1 $# o_valid_r $end
$var reg 1 %# o_valid_w $end
$var integer 32 &# error [31:0] $end
$upscope $end
$upscope $end
$scope begin test_unit[7] $end
$scope module inst $end
$var wire 32 '# i_data [31:0] $end
$var wire 1 " i_overflow $end
$var wire 1 (# i_start $end
$var wire 1 # i_valid $end
$var wire 32 )# o_data_a [31:0] $end
$var wire 32 *# o_data_b [31:0] $end
$var wire 1 +# o_valid $end
$var wire 1 ,# test_finish $end
$var wire 1 -# output_overflow $end
$var wire 32 .# output_data [31:0] $end
$var wire 4 /# o_inst [3:0] $end
$var wire 1 0# o_done $end
$var wire 32 1# input_B [31:0] $end
$var wire 32 2# input_A [31:0] $end
$var wire 1 ! i_rst_n $end
$var wire 1 ) i_clk $end
$var reg 3 3# cs_ [2:0] $end
$var reg 3 4# idx_r [2:0] $end
$var reg 3 5# idx_w [2:0] $end
$var reg 3 6# ns_ [2:0] $end
$var reg 32 7# o_data_a_r [31:0] $end
$var reg 32 8# o_data_a_w [31:0] $end
$var reg 32 9# o_data_b_r [31:0] $end
$var reg 32 :# o_data_b_w [31:0] $end
$var reg 1 ;# o_valid_r $end
$var reg 1 <# o_valid_w $end
$var integer 32 =# error [31:0] $end
$upscope $end
$upscope $end
$scope begin test_unit[8] $end
$scope module inst $end
$var wire 32 ># i_data [31:0] $end
$var wire 1 " i_overflow $end
$var wire 1 ?# i_start $end
$var wire 1 # i_valid $end
$var wire 32 @# o_data_a [31:0] $end
$var wire 32 A# o_data_b [31:0] $end
$var wire 1 B# o_valid $end
$var wire 1 C# test_finish $end
$var wire 1 D# output_overflow $end
$var wire 32 E# output_data [31:0] $end
$var wire 4 F# o_inst [3:0] $end
$var wire 1 G# o_done $end
$var wire 32 H# input_B [31:0] $end
$var wire 32 I# input_A [31:0] $end
$var wire 1 ! i_rst_n $end
$var wire 1 ) i_clk $end
$var reg 3 J# cs_ [2:0] $end
$var reg 3 K# idx_r [2:0] $end
$var reg 3 L# idx_w [2:0] $end
$var reg 3 M# ns_ [2:0] $end
$var reg 32 N# o_data_a_r [31:0] $end
$var reg 32 O# o_data_a_w [31:0] $end
$var reg 32 P# o_data_b_r [31:0] $end
$var reg 32 Q# o_data_b_w [31:0] $end
$var reg 1 R# o_valid_r $end
$var reg 1 S# o_valid_w $end
$var integer 32 T# error [31:0] $end
$upscope $end
$upscope $end
$scope begin test_unit[9] $end
$scope module inst $end
$var wire 32 U# i_data [31:0] $end
$var wire 1 " i_overflow $end
$var wire 1 V# i_start $end
$var wire 1 # i_valid $end
$var wire 32 W# o_data_a [31:0] $end
$var wire 32 X# o_data_b [31:0] $end
$var wire 1 Y# o_valid $end
$var wire 1 Z# test_finish $end
$var wire 1 [# output_overflow $end
$var wire 32 \# output_data [31:0] $end
$var wire 4 ]# o_inst [3:0] $end
$var wire 1 ^# o_done $end
$var wire 32 _# input_B [31:0] $end
$var wire 32 `# input_A [31:0] $end
$var wire 1 ! i_rst_n $end
$var wire 1 ) i_clk $end
$var reg 3 a# cs_ [2:0] $end
$var reg 3 b# idx_r [2:0] $end
$var reg 3 c# idx_w [2:0] $end
$var reg 3 d# ns_ [2:0] $end
$var reg 32 e# o_data_a_r [31:0] $end
$var reg 32 f# o_data_a_w [31:0] $end
$var reg 32 g# o_data_b_r [31:0] $end
$var reg 32 h# o_data_b_w [31:0] $end
$var reg 1 i# o_valid_r $end
$var reg 1 j# o_valid_w $end
$var integer 32 k# error [31:0] $end
$upscope $end
$upscope $end
$scope begin test_unit[10] $end
$scope module inst $end
$var wire 32 l# i_data [31:0] $end
$var wire 1 " i_overflow $end
$var wire 1 m# i_start $end
$var wire 1 # i_valid $end
$var wire 32 n# o_data_a [31:0] $end
$var wire 32 o# o_data_b [31:0] $end
$var wire 1 p# o_valid $end
$var wire 1 q# test_finish $end
$var wire 1 r# output_overflow $end
$var wire 32 s# output_data [31:0] $end
$var wire 4 t# o_inst [3:0] $end
$var wire 1 u# o_done $end
$var wire 32 v# input_B [31:0] $end
$var wire 32 w# input_A [31:0] $end
$var wire 1 ! i_rst_n $end
$var wire 1 ) i_clk $end
$var reg 3 x# cs_ [2:0] $end
$var reg 3 y# idx_r [2:0] $end
$var reg 3 z# idx_w [2:0] $end
$var reg 3 {# ns_ [2:0] $end
$var reg 32 |# o_data_a_r [31:0] $end
$var reg 32 }# o_data_a_w [31:0] $end
$var reg 32 ~# o_data_b_r [31:0] $end
$var reg 32 !$ o_data_b_w [31:0] $end
$var reg 1 "$ o_valid_r $end
$var reg 1 #$ o_valid_w $end
$var integer 32 $$ error [31:0] $end
$upscope $end
$upscope $end
$scope begin test_unit[11] $end
$scope module inst $end
$var wire 32 %$ i_data [31:0] $end
$var wire 1 " i_overflow $end
$var wire 1 &$ i_start $end
$var wire 1 # i_valid $end
$var wire 32 '$ o_data_a [31:0] $end
$var wire 32 ($ o_data_b [31:0] $end
$var wire 1 )$ o_valid $end
$var wire 1 *$ test_finish $end
$var wire 1 +$ output_overflow $end
$var wire 32 ,$ output_data [31:0] $end
$var wire 4 -$ o_inst [3:0] $end
$var wire 1 .$ o_done $end
$var wire 32 /$ input_B [31:0] $end
$var wire 32 0$ input_A [31:0] $end
$var wire 1 ! i_rst_n $end
$var wire 1 ) i_clk $end
$var reg 3 1$ cs_ [2:0] $end
$var reg 3 2$ idx_r [2:0] $end
$var reg 3 3$ idx_w [2:0] $end
$var reg 3 4$ ns_ [2:0] $end
$var reg 32 5$ o_data_a_r [31:0] $end
$var reg 32 6$ o_data_a_w [31:0] $end
$var reg 32 7$ o_data_b_r [31:0] $end
$var reg 32 8$ o_data_b_w [31:0] $end
$var reg 1 9$ o_valid_r $end
$var reg 1 :$ o_valid_w $end
$var integer 32 ;$ error [31:0] $end
$upscope $end
$upscope $end
$scope begin test_unit[12] $end
$scope module inst $end
$var wire 32 <$ i_data [31:0] $end
$var wire 1 " i_overflow $end
$var wire 1 =$ i_start $end
$var wire 1 # i_valid $end
$var wire 32 >$ o_data_a [31:0] $end
$var wire 32 ?$ o_data_b [31:0] $end
$var wire 1 @$ o_valid $end
$var wire 1 A$ test_finish $end
$var wire 1 B$ output_overflow $end
$var wire 32 C$ output_data [31:0] $end
$var wire 4 D$ o_inst [3:0] $end
$var wire 1 E$ o_done $end
$var wire 32 F$ input_B [31:0] $end
$var wire 32 G$ input_A [31:0] $end
$var wire 1 ! i_rst_n $end
$var wire 1 ) i_clk $end
$var reg 3 H$ cs_ [2:0] $end
$var reg 3 I$ idx_r [2:0] $end
$var reg 3 J$ idx_w [2:0] $end
$var reg 3 K$ ns_ [2:0] $end
$var reg 32 L$ o_data_a_r [31:0] $end
$var reg 32 M$ o_data_a_w [31:0] $end
$var reg 32 N$ o_data_b_r [31:0] $end
$var reg 32 O$ o_data_b_w [31:0] $end
$var reg 1 P$ o_valid_r $end
$var reg 1 Q$ o_valid_w $end
$var integer 32 R$ error [31:0] $end
$upscope $end
$upscope $end
$scope begin test_unit[13] $end
$scope module inst $end
$var wire 32 S$ i_data [31:0] $end
$var wire 1 " i_overflow $end
$var wire 1 T$ i_start $end
$var wire 1 # i_valid $end
$var wire 32 U$ o_data_a [31:0] $end
$var wire 32 V$ o_data_b [31:0] $end
$var wire 1 W$ o_valid $end
$var wire 1 X$ test_finish $end
$var wire 1 Y$ output_overflow $end
$var wire 32 Z$ output_data [31:0] $end
$var wire 4 [$ o_inst [3:0] $end
$var wire 1 \$ o_done $end
$var wire 32 ]$ input_B [31:0] $end
$var wire 32 ^$ input_A [31:0] $end
$var wire 1 ! i_rst_n $end
$var wire 1 ) i_clk $end
$var reg 3 _$ cs_ [2:0] $end
$var reg 3 `$ idx_r [2:0] $end
$var reg 3 a$ idx_w [2:0] $end
$var reg 3 b$ ns_ [2:0] $end
$var reg 32 c$ o_data_a_r [31:0] $end
$var reg 32 d$ o_data_a_w [31:0] $end
$var reg 32 e$ o_data_b_r [31:0] $end
$var reg 32 f$ o_data_b_w [31:0] $end
$var reg 1 g$ o_valid_r $end
$var reg 1 h$ o_valid_w $end
$var integer 32 i$ error [31:0] $end
$upscope $end
$upscope $end
$scope begin test_unit[14] $end
$scope module inst $end
$var wire 32 j$ i_data [31:0] $end
$var wire 1 " i_overflow $end
$var wire 1 k$ i_start $end
$var wire 1 # i_valid $end
$var wire 32 l$ o_data_a [31:0] $end
$var wire 32 m$ o_data_b [31:0] $end
$var wire 1 n$ o_valid $end
$var wire 1 o$ test_finish $end
$var wire 1 p$ output_overflow $end
$var wire 32 q$ output_data [31:0] $end
$var wire 4 r$ o_inst [3:0] $end
$var wire 1 s$ o_done $end
$var wire 32 t$ input_B [31:0] $end
$var wire 32 u$ input_A [31:0] $end
$var wire 1 ! i_rst_n $end
$var wire 1 ) i_clk $end
$var reg 3 v$ cs_ [2:0] $end
$var reg 3 w$ idx_r [2:0] $end
$var reg 3 x$ idx_w [2:0] $end
$var reg 3 y$ ns_ [2:0] $end
$var reg 32 z$ o_data_a_r [31:0] $end
$var reg 32 {$ o_data_a_w [31:0] $end
$var reg 32 |$ o_data_b_r [31:0] $end
$var reg 32 }$ o_data_b_w [31:0] $end
$var reg 1 ~$ o_valid_r $end
$var reg 1 !% o_valid_w $end
$var integer 32 "% error [31:0] $end
$upscope $end
$upscope $end
$upscope $end
$scope module u_clk $end
$var reg 1 ) clk $end
$var reg 1 ! rst_n $end
$upscope $end
$upscope $end
$enddefinitions $end
#0
$dumpvars
bx "%
0!%
x~$
b0 }$
bx |$
b0 {$
bx z$
bx y$
bx x$
bx w$
bx v$
bx u$
bx t$
xs$
bx r$
bx q$
xp$
xo$
xn$
bx m$
bx l$
xk$
bx j$
bx i$
0h$
xg$
b0 f$
bx e$
b0 d$
bx c$
bx b$
bx a$
bx `$
bx _$
bx ^$
bx ]$
x\$
bx [$
bx Z$
xY$
xX$
xW$
bx V$
bx U$
xT$
bx S$
bx R$
0Q$
xP$
b0 O$
bx N$
b0 M$
bx L$
bx K$
bx J$
bx I$
bx H$
bx G$
bx F$
xE$
bx D$
bx C$
xB$
xA$
x@$
bx ?$
bx >$
x=$
bx <$
bx ;$
0:$
x9$
b0 8$
bx 7$
b0 6$
bx 5$
bx 4$
bx 3$
bx 2$
bx 1$
bx 0$
bx /$
x.$
bx -$
bx ,$
x+$
x*$
x)$
bx ($
bx '$
x&$
bx %$
bx $$
0#$
x"$
b0 !$
bx ~#
b0 }#
bx |#
bx {#
bx z#
bx y#
bx x#
bx w#
bx v#
xu#
bx t#
bx s#
xr#
xq#
xp#
bx o#
bx n#
xm#
bx l#
bx k#
0j#
xi#
b0 h#
bx g#
b0 f#
bx e#
bx d#
bx c#
bx b#
bx a#
bx `#
bx _#
x^#
bx ]#
bx \#
x[#
xZ#
xY#
bx X#
bx W#
xV#
bx U#
bx T#
0S#
xR#
b0 Q#
bx P#
b0 O#
bx N#
bx M#
bx L#
bx K#
bx J#
bx I#
bx H#
xG#
bx F#
bx E#
xD#
xC#
xB#
bx A#
bx @#
x?#
bx >#
bx =#
0<#
x;#
b0 :#
bx 9#
b0 8#
bx 7#
bx 6#
bx 5#
bx 4#
bx 3#
bx 2#
bx 1#
x0#
bx /#
bx .#
x-#
x,#
x+#
bx *#
bx )#
x(#
bx '#
bx &#
0%#
x$#
b0 ##
bx "#
b0 !#
bx ~"
bx }"
bx |"
bx {"
bx z"
bx y"
bx x"
xw"
bx v"
bx u"
xt"
xs"
xr"
bx q"
bx p"
xo"
bx n"
bx m"
0l"
xk"
b0 j"
bx i"
b0 h"
bx g"
bx f"
bx e"
bx d"
bx c"
bx b"
bx a"
x`"
bx _"
bx ^"
x]"
x\"
x["
bx Z"
bx Y"
xX"
bx W"
bx V"
0U"
xT"
b0 S"
bx R"
b0 Q"
bx P"
bx O"
bx N"
bx M"
bx L"
bx K"
bx J"
xI"
bx H"
bx G"
xF"
xE"
xD"
bx C"
bx B"
xA"
bx @"
bx ?"
0>"
x="
b0 <"
bx ;"
b0 :"
bx 9"
bx 8"
bx 7"
bx 6"
bx 5"
bx 4"
bx 3"
x2"
bx 1"
bx 0"
x/"
x."
x-"
bx ,"
bx +"
x*"
bx )"
bx ("
0'"
x&"
b0 %"
bx $"
b0 #"
bx ""
bx !"
bx ~
bx }
bx |
bx {
bx z
xy
bx x
bx w
xv
xu
xt
bx s
bx r
xq
bx p
bx o
0n
xm
b0 l
bx k
b0 j
bx i
bx h
bx g
bx f
bx e
bx d
bx c
xb
bx a
bx `
x_
x^
x]
bx \
bx [
xZ
bx Y
bx X
0W
xV
b0 U
bx T
b0 S
bx R
bx Q
bx P
bx O
bx N
bx M
bx L
xK
bx J
bx I
xH
xG
xF
bx E
bx D
xC
bx B
b0 A
bx @
bx ?
bx >
bx =
bx <
bx ;
bx :
bx 9
bx 8
x7
06
x5
04
x3
b0 2
bx 1
x0
bx /
bx .
bx -
bx ,
bx +
bx *
1)
bx (
bx '
bx &
0%
bx $
x#
x"
1!
$end
#2500
b11 M
b1111111111111111111111111111101 L
b10000000000000000000000000000000 I
1H
b0 J
b0 P
b0x Q
b11 d
b1 c
b10 `
0_
b1 a
b0 g
b0x h
b10000000000 {
b1000000000000 z
b10000000000000000000000 w
0v
b10 x
b0 ~
b0x !"
b10000000000 4"
b1000000000000 3"
b1000000000000 0"
0/"
b11 1"
b0 7"
b0x 8"
b10000000000 K"
b1000000000000 J"
b10000000000 G"
0F"
b100 H"
b0 N"
b0x O"
b11 b"
b1111111111111111111111111111101 a"
b10000000000000000000000000000000 ^"
0]"
b101 _"
b0 e"
b0x f"
b11 y"
b1111111111111111111111111111101 x"
b10000000000000000000000000000110 u"
1t"
b110 v"
b0 |"
b0x }"
b11 2#
b1000 1#
b11000 .#
0-#
b111 /#
b0 5#
b0x 6#
b1000 I#
b11 H#
b1000 E#
0D#
b1000 F#
b0 L#
b0x M#
b1000 `#
b11 _#
b11 \#
0[#
b1001 ]#
b0 c#
b0x d#
b1000 w#
b11 v#
b0 s#
0r#
b1010 t#
b0 z#
b0x {#
b1000 0$
b11 /$
b1011 ,$
0+$
b1011 -$
b0 3$
b0x 4$
b1000 G$
b11 F$
b1011 C$
0B$
b1100 D$
b0 J$
b0x K$
b1000 ^$
b0 ]$
b11111111111111111111111111110111 Z$
0Y$
b1101 [$
b0 a$
b0x b$
b1000 u$
b0 t$
b10000000000000000000000000000 q$
0p$
b1110 r$
b0 x$
b0x y$
b1 =
0#
05
0"
03
b0 $
b0 *
b0 ;
b0 B
b0 Y
b0 p
b0 )"
b0 @"
b0 W"
b0 n"
b0 '#
b0 >#
b0 U#
b0 l#
b0 %$
b0 <$
b0 S$
b0 j$
b0 1
b0 E
b0 T
b0 D
b0 R
0F
0V
0G
b0 O
0K
b0 N
b0 \
b0 k
b0 [
b0 i
0]
0m
0^
b0 f
0b
b0 e
b0 s
b0 $"
b0 r
b0 ""
0t
0&"
0u
b0 }
0y
b0 |
b0 ,"
b0 ;"
b0 +"
b0 9"
0-"
0="
0."
b0 6"
02"
b0 5"
b0 C"
b0 R"
b0 B"
b0 P"
0D"
0T"
0E"
b0 M"
0I"
b0 L"
b0 Z"
b0 i"
b0 Y"
b0 g"
0["
0k"
0\"
b0 d"
0`"
b0 c"
b0 q"
b0 "#
b0 p"
b0 ~"
0r"
0$#
0s"
b0 {"
0w"
b0 z"
b0 *#
b0 9#
b0 )#
b0 7#
0+#
0;#
0,#
b0 4#
00#
b0 3#
b0 A#
b0 P#
b0 @#
b0 N#
0B#
0R#
0C#
b0 K#
0G#
b0 J#
b0 X#
b0 g#
b0 W#
b0 e#
0Y#
0i#
0Z#
b0 b#
0^#
b0 a#
b0 o#
b0 ~#
b0 n#
b0 |#
0p#
0"$
0q#
b0 y#
0u#
b0 x#
b0 ($
b0 7$
b0 '$
b0 5$
0)$
09$
0*$
b0 2$
0.$
b0 1$
b0 ?$
b0 N$
b0 >$
b0 L$
0@$
0P$
0A$
b0 I$
0E$
b0 H$
b0 V$
b0 e$
b0 U$
b0 c$
0W$
0g$
0X$
b0 `$
0\$
b0 _$
b0 m$
b0 |$
b0 l$
b0 z$
0n$
0~$
0o$
b0 w$
0s$
b0 v$
b0 <
0!
#5000
b1 =
b0 X
b0 o
b0 ("
b0 ?"
b0 V"
b0 m"
b0 &#
b0 =#
b0 T#
b0 k#
b0 $$
b0 ;$
b0 R$
b0 i$
b0 "%
0)
#10000
1)
#15000
0)
#20000
1)
#25000
0)
#30000
1)
#35000
0)
#40000
1)
#45000
0)
#50000
1)
1!
#55000
b0 Q
b0 h
b0 !"
b0 8"
b0 O"
b0 f"
b0 }"
b0 6#
b0 M#
b0 d#
b0 {#
b0 4$
b0 K$
b0 b$
b0 y$
b0 &
b0 -
b0 @
b0 ,
b0 '
b0 .
b0 ?
b0 +
b0 (
b0 /
b0 >
1C
b0x N
b0x e
b0x |
b0x 5"
b0x L"
b0x c"
b0x z"
b0x 3#
b0x J#
b0x a#
b0x x#
b0x 1$
b0x H$
b0x _$
b0x v$
b1 <
0)
#60000
1)
#65000
b0x y$
b0x b$
b0x K$
b0x 4$
b0x {#
b0x d#
b0x M#
b0x 6#
b0x }"
b0x f"
b0x O"
b0x 8"
b0x !"
b0x h
b1 Q
b0 v$
b0 _$
b0 H$
b0 1$
b0 x#
b0 a#
b0 J#
b0 3#
b0 z"
b0 c"
b0 L"
b0 5"
b0 |
b0 e
b0 N
0)
#70000
1)
#75000
b1111111111111111111111111111101 U
b11 S
1W
b10 Q
b0 h
b0 !"
b0 8"
b0 O"
b0 f"
b0 }"
b0 6#
b0 M#
b0 d#
b0 {#
b0 4$
b0 K$
b0 b$
b0 y$
b1 N
b0x e
b0x |
b0x 5"
b0x L"
b0x c"
b0x z"
b0x 3#
b0x J#
b0x a#
b0x x#
b0x 1$
b0x H$
b0x _$
b0x v$
0)
#80000
1)
#85000
16
14
b10000000000000000000000000000000 2
b10000000000000000000000000000000 8
b0x y$
b0x b$
b0x K$
b0x 4$
b0x {#
b0x d#
b0x M#
b0x 6#
b0x }"
b0x f"
b0x O"
b0x 8"
b0x !"
b0x h
1%
b1111111111111111111111111111101 ,
b1111111111111111111111111111101 '
b1111111111111111111111111111101 .
b1111111111111111111111111111101 ?
b11 +
b11 (
b11 /
b11 >
b0 U
b0 S
0W
b0 v$
b0 _$
b0 H$
b0 1$
b0 x#
b0 a#
b0 J#
b0 3#
b0 z"
b0 c"
b0 L"
b0 5"
b0 |
b0 e
b1111111111111111111111111111101 E
b1111111111111111111111111111101 T
b11 D
b11 R
1F
1V
b10 N
0)
#90000
b1 P
b1 Q
1#
15
1"
13
b10000000000000000000000000000000 $
b10000000000000000000000000000000 *
b10000000000000000000000000000000 ;
b10000000000000000000000000000000 B
b10000000000000000000000000000000 Y
b10000000000000000000000000000000 p
b10000000000000000000000000000000 )"
b10000000000000000000000000000000 @"
b10000000000000000000000000000000 W"
b10000000000000000000000000000000 n"
b10000000000000000000000000000000 '#
b10000000000000000000000000000000 >#
b10000000000000000000000000000000 U#
b10000000000000000000000000000000 l#
b10000000000000000000000000000000 %$
b10000000000000000000000000000000 <$
b10000000000000000000000000000000 S$
b10000000000000000000000000000000 j$
b10000000000000000000000000000000 1
1)
#95000
06
b0 2
04
b0 ,
b0 '
b0 .
b0 ?
b0 +
b0 (
b0 /
b0 >
0%
b101000001 M
b111001000 L
b1100001001 I
0H
b111001000 U
b101000001 S
1W
b10 Q
b0 h
b0 !"
b0 8"
b0 O"
b0 f"
b0 }"
b0 6#
b0 M#
b0 d#
b0 {#
b0 4$
b0 K$
b0 b$
b0 y$
b0 E
b0 T
b0 D
b0 R
0F
0V
b1 O
b1 N
b0x e
b0x |
b0x 5"
b0x L"
b0x c"
b0x z"
b0x 3#
b0x J#
b0x a#
b0x x#
b0x 1$
b0x H$
b0x _$
b0x v$
0)
#100000
b111001000 U
b101000001 S
1W
0#
05
0"
03
b0 $
b0 *
b0 ;
b0 B
b0 Y
b0 p
b0 )"
b0 @"
b0 W"
b0 n"
b0 '#
b0 >#
b0 U#
b0 l#
b0 %$
b0 <$
b0 S$
b0 j$
b0 1
1)
